%!PS-Adobe-3.0
%%Creator: graphviz version 2.36.0 (20140111.2315)
%%Title: %3
%%Pages: (atend)
%%BoundingBox: (atend)
%%EndComments
save
%%BeginProlog
/DotDict 200 dict def
DotDict begin

/setupLatin1 {
mark
/EncodingVector 256 array def
 EncodingVector 0

ISOLatin1Encoding 0 255 getinterval putinterval
EncodingVector 45 /hyphen put

% Set up ISO Latin 1 character encoding
/starnetISO {
        dup dup findfont dup length dict begin
        { 1 index /FID ne { def }{ pop pop } ifelse
        } forall
        /Encoding EncodingVector def
        currentdict end definefont
} def
/Times-Roman starnetISO def
/Times-Italic starnetISO def
/Times-Bold starnetISO def
/Times-BoldItalic starnetISO def
/Helvetica starnetISO def
/Helvetica-Oblique starnetISO def
/Helvetica-Bold starnetISO def
/Helvetica-BoldOblique starnetISO def
/Courier starnetISO def
/Courier-Oblique starnetISO def
/Courier-Bold starnetISO def
/Courier-BoldOblique starnetISO def
cleartomark
} bind def

%%BeginResource: procset graphviz 0 0
/coord-font-family /Times-Roman def
/default-font-family /Times-Roman def
/coordfont coord-font-family findfont 8 scalefont def

/InvScaleFactor 1.0 def
/set_scale {
       dup 1 exch div /InvScaleFactor exch def
       scale
} bind def

% styles
/solid { [] 0 setdash } bind def
/dashed { [9 InvScaleFactor mul dup ] 0 setdash } bind def
/dotted { [1 InvScaleFactor mul 6 InvScaleFactor mul] 0 setdash } bind def
/invis {/fill {newpath} def /stroke {newpath} def /show {pop newpath} def} bind def
/bold { 2 setlinewidth } bind def
/filled { } bind def
/unfilled { } bind def
/rounded { } bind def
/diagonals { } bind def
/tapered { } bind def

% hooks for setting color 
/nodecolor { sethsbcolor } bind def
/edgecolor { sethsbcolor } bind def
/graphcolor { sethsbcolor } bind def
/nopcolor {pop pop pop} bind def

/beginpage {	% i j npages
	/npages exch def
	/j exch def
	/i exch def
	/str 10 string def
	npages 1 gt {
		gsave
			coordfont setfont
			0 0 moveto
			(\() show i str cvs show (,) show j str cvs show (\)) show
		grestore
	} if
} bind def

/set_font {
	findfont exch
	scalefont setfont
} def

% draw text fitted to its expected width
/alignedtext {			% width text
	/text exch def
	/width exch def
	gsave
		width 0 gt {
			[] 0 setdash
			text stringwidth pop width exch sub text length div 0 text ashow
		} if
	grestore
} def

/boxprim {				% xcorner ycorner xsize ysize
		4 2 roll
		moveto
		2 copy
		exch 0 rlineto
		0 exch rlineto
		pop neg 0 rlineto
		closepath
} bind def

/ellipse_path {
	/ry exch def
	/rx exch def
	/y exch def
	/x exch def
	matrix currentmatrix
	newpath
	x y translate
	rx ry scale
	0 0 1 0 360 arc
	setmatrix
} bind def

/endpage { showpage } bind def
/showpage { } def

/layercolorseq
	[	% layer color sequence - darkest to lightest
		[0 0 0]
		[.2 .8 .8]
		[.4 .8 .8]
		[.6 .8 .8]
		[.8 .8 .8]
	]
def

/layerlen layercolorseq length def

/setlayer {/maxlayer exch def /curlayer exch def
	layercolorseq curlayer 1 sub layerlen mod get
	aload pop sethsbcolor
	/nodecolor {nopcolor} def
	/edgecolor {nopcolor} def
	/graphcolor {nopcolor} def
} bind def

/onlayer { curlayer ne {invis} if } def

/onlayers {
	/myupper exch def
	/mylower exch def
	curlayer mylower lt
	curlayer myupper gt
	or
	{invis} if
} def

/curlayer 0 def

%%EndResource
%%EndProlog
%%BeginSetup
14 default-font-family set_font
1 setmiterlimit
% /arrowlength 10 def
% /arrowwidth 5 def

% make sure pdfmark is harmless for PS-interpreters other than Distiller
/pdfmark where {pop} {userdict /pdfmark /cleartomark load put} ifelse
% make '<<' and '>>' safe on PS Level 1 devices
/languagelevel where {pop languagelevel}{1} ifelse
2 lt {
    userdict (<<) cvn ([) cvn load put
    userdict (>>) cvn ([) cvn load put
} if

%%EndSetup
setupLatin1
%%Page: 1 1
%%PageBoundingBox: 36 36 314 236
%%PageOrientation: Portrait
0 0 1 beginpage
gsave
36 36 278 200 boxprim clip newpath
1 1 set_scale 0 rotate 40 40 translate
% x
gsave
1 setlinewidth
0 0 0 nodecolor
27 30 27 18 ellipse_path stroke
0 0 0 nodecolor
14 /Times-Roman set_font
23.5 26.3 moveto 7 (x) alignedtext
grestore
% f(z)
gsave
1 setlinewidth
0 0 0 nodecolor
96.15 50.86 27 18 ellipse_path stroke
0 0 0 nodecolor
14 /Times-Roman set_font
86.15 47.16 moveto 20 (f\(z\)) alignedtext
grestore
% x--f(z)
gsave
1 setlinewidth
0 0 0 edgecolor
newpath 51.97 37.53 moveto
58.31 39.44 65.12 41.5 71.46 43.41 curveto
stroke
grestore
% y
gsave
1 setlinewidth
0 0 0 nodecolor
227 109.3 27 18 ellipse_path stroke
0 0 0 nodecolor
14 /Times-Roman set_font
223.5 105.6 moveto 7 (y) alignedtext
grestore
% f(w)
gsave
1 setlinewidth
0 0 0 nodecolor
157.65 89.05 27 18 ellipse_path stroke
0 0 0 nodecolor
14 /Times-Roman set_font
145.65 85.35 moveto 24 (f\(w\)) alignedtext
grestore
% y--f(w)
gsave
1 setlinewidth
0 0 0 edgecolor
newpath 201.97 101.99 moveto
195.6 100.13 188.77 98.13 182.42 96.28 curveto
stroke
grestore
% z
gsave
1 setlinewidth
0 0 0 nodecolor
171 28.64 27 18 ellipse_path stroke
0 0 0 nodecolor
14 /Times-Roman set_font
167.5 24.94 moveto 7 (z) alignedtext
grestore
% w
gsave
1 setlinewidth
0 0 0 nodecolor
242.21 18 27 18 ellipse_path stroke
0 0 0 nodecolor
14 /Times-Roman set_font
237.21 14.3 moveto 10 (w) alignedtext
grestore
% z--w
gsave
1 setlinewidth
0 0 0 edgecolor
newpath 197.52 24.68 moveto
203.37 23.8 209.57 22.88 215.43 22 curveto
stroke
grestore
% f(x)
gsave
1 setlinewidth
0 0 0 nodecolor
147 150 27 18 ellipse_path stroke
0 0 0 nodecolor
14 /Times-Roman set_font
136.5 146.3 moveto 21 (f\(x\)) alignedtext
grestore
% f(y)
gsave
1 setlinewidth
0 0 0 nodecolor
243 174 27 18 ellipse_path stroke
0 0 0 nodecolor
14 /Times-Roman set_font
232.5 170.3 moveto 21 (f\(y\)) alignedtext
grestore
% f(z)--f(w)
gsave
1 setlinewidth
0 0 0 edgecolor
newpath 115.95 63.15 moveto
122.97 67.51 130.87 72.42 137.89 76.78 curveto
stroke
grestore
endpage
showpage
grestore
%%PageTrailer
%%EndPage: 1
%%Trailer
%%Pages: 1
%%BoundingBox: 36 36 314 236
end
restore
%%EOF
