<?xml version="1.0" encoding="UTF-8" standalone="no"?>
<!-- Created with Inkscape (http://www.inkscape.org/) -->

<svg
   xmlns:dc="http://purl.org/dc/elements/1.1/"
   xmlns:cc="http://creativecommons.org/ns#"
   xmlns:rdf="http://www.w3.org/1999/02/22-rdf-syntax-ns#"
   xmlns:svg="http://www.w3.org/2000/svg"
   xmlns="http://www.w3.org/2000/svg"
   xmlns:sodipodi="http://sodipodi.sourceforge.net/DTD/sodipodi-0.dtd"
   xmlns:inkscape="http://www.inkscape.org/namespaces/inkscape"
   width="167.62221"
   height="113.92857"
   id="svg2"
   version="1.1"
   inkscape:version="0.48.4 r9939"
   sodipodi:docname="small_example_tree.svg">
  <defs
     id="defs4" />
  <sodipodi:namedview
     id="base"
     pagecolor="#ffffff"
     bordercolor="#666666"
     borderopacity="1.0"
     inkscape:pageopacity="0.0"
     inkscape:pageshadow="2"
     inkscape:zoom="3.959798"
     inkscape:cx="182.67204"
     inkscape:cy="23.582987"
     inkscape:document-units="px"
     inkscape:current-layer="layer1"
     showgrid="false"
     inkscape:window-width="2880"
     inkscape:window-height="1724"
     inkscape:window-x="0"
     inkscape:window-y="24"
     inkscape:window-maximized="1"
     fit-margin-top="0"
     fit-margin-left="0"
     fit-margin-right="0"
     fit-margin-bottom="0" />
  <metadata
     id="metadata7">
    <rdf:RDF>
      <cc:Work
         rdf:about="">
        <dc:format>image/svg+xml</dc:format>
        <dc:type
           rdf:resource="http://purl.org/dc/dcmitype/StillImage" />
        <dc:title></dc:title>
      </cc:Work>
    </rdf:RDF>
  </metadata>
  <g
     inkscape:label="Layer 1"
     inkscape:groupmode="layer"
     id="layer1"
     transform="translate(-137.21429,-29.005039)">
    <path
       sodipodi:type="arc"
       style="fill:#ffffff;stroke:#000000;stroke-width:1;stroke-miterlimit:4;stroke-opacity:1;stroke-dasharray:none;stroke-dashoffset:0"
       id="path2985"
       sodipodi:cx="118.21429"
       sodipodi:cy="52.005039"
       sodipodi:rx="22.5"
       sodipodi:ry="22.5"
       d="m 140.71429,52.005039 c 0,12.426407 -10.0736,22.5 -22.5,22.5 -12.42641,0 -22.500003,-10.073593 -22.500003,-22.5 0,-12.426407 10.073593,-22.5 22.500003,-22.5 12.4264,0 22.5,10.073593 22.5,22.5 z"
       transform="translate(42,0)" />
    <text
       xml:space="preserve"
       style="font-size:22px;font-style:normal;font-weight:normal;line-height:125%;letter-spacing:0px;word-spacing:0px;fill:#000000;fill-opacity:1;stroke:none;font-family:Sans"
       x="141.71465"
       y="54.227119"
       id="text3795"
       sodipodi:linespacing="125%"><tspan
         sodipodi:role="line"
         id="tspan3797"
         x="141.71465"
         y="54.227119"
         style="font-size:13px">x<tspan
   style="font-size:65.00091553%;baseline-shift:sub"
   id="tspan7841">2</tspan>=x<tspan
   style="font-size:65.00091553%;baseline-shift:sub"
   id="tspan7843">3</tspan></tspan></text>
    <text
       xml:space="preserve"
       style="font-size:40px;font-style:normal;font-weight:normal;line-height:125%;letter-spacing:0px;word-spacing:0px;fill:#000000;fill-opacity:1;stroke:none;font-family:Sans"
       x="180.98245"
       y="42.377003"
       id="text3838"
       sodipodi:linespacing="125%"><tspan
         sodipodi:role="line"
         id="tspan3840"
         x="180.98245"
         y="42.377003"
         style="font-size:13px">[T]</tspan></text>
    <g
       id="g3264"
       transform="translate(36,0)">
      <path
         d="m 140.71429,52.005039 c 0,12.426407 -10.0736,22.5 -22.5,22.5 -12.42641,0 -22.500003,-10.073593 -22.500003,-22.5 0,-12.426407 10.073593,-22.5 22.500003,-22.5 12.4264,0 22.5,10.073593 22.5,22.5 z"
         sodipodi:ry="22.5"
         sodipodi:rx="22.5"
         sodipodi:cy="52.005039"
         sodipodi:cx="118.21429"
         id="path2985-6-6"
         style="fill:#ffffff;stroke:#000000;stroke-width:1;stroke-miterlimit:4;stroke-opacity:1;stroke-dasharray:none;stroke-dashoffset:0"
         sodipodi:type="arc"
         transform="translate(126.28571,0)" />
      <text
         sodipodi:linespacing="125%"
         id="text3795-5"
         y="54.506031"
         x="226.59514"
         style="font-size:22px;font-style:normal;font-weight:normal;line-height:125%;letter-spacing:0px;word-spacing:0px;fill:#000000;fill-opacity:1;stroke:none;font-family:Sans"
         xml:space="preserve"><tspan
           style="font-size:13px"
           y="54.506031"
           x="226.59514"
           id="tspan3797-2"
           sodipodi:role="line">x<tspan
   id="tspan7874"
   style="font-size:65.00091553%;baseline-shift:sub">5</tspan>=x<tspan
   id="tspan7872"
   style="font-size:65.00091553%;baseline-shift:sub">6</tspan></tspan></text>
    </g>
    <g
       id="g3257"
       transform="translate(-40,0)">
      <path
         d="m 140.71429,52.005039 c 0,12.426407 -10.0736,22.5 -22.5,22.5 -12.42641,0 -22.500003,-10.073593 -22.500003,-22.5 0,-12.426407 10.073593,-22.5 22.500003,-22.5 12.4264,0 22.5,10.073593 22.5,22.5 z"
         sodipodi:ry="22.5"
         sodipodi:rx="22.5"
         sodipodi:cy="52.005039"
         sodipodi:cx="118.21429"
         id="path2985-3"
         style="fill:#ffffff;stroke:#000000;stroke-width:1;stroke-miterlimit:4;stroke-opacity:1;stroke-dasharray:none;stroke-dashoffset:0"
         sodipodi:type="arc"
         transform="translate(84.785713,67.92857)" />
      <text
         sodipodi:linespacing="125%"
         id="text3795-8"
         y="122.69132"
         x="184.42126"
         style="font-size:22px;font-style:normal;font-weight:normal;line-height:125%;letter-spacing:0px;word-spacing:0px;fill:#000000;fill-opacity:1;stroke:none;font-family:Sans"
         xml:space="preserve"><tspan
           style="font-size:13px"
           y="122.69132"
           x="184.42126"
           id="tspan3797-3"
           sodipodi:role="line">x<tspan
   id="tspan7895"
   style="font-size:65.00091553%;baseline-shift:sub">1</tspan>=x<tspan
   id="tspan7893"
   style="font-size:65.00091553%;baseline-shift:sub">7</tspan></tspan></text>
    </g>
    <text
       xml:space="preserve"
       style="font-size:40px;font-style:normal;font-weight:normal;line-height:125%;letter-spacing:0px;word-spacing:0px;fill:#000000;fill-opacity:1;stroke:none;font-family:Sans"
       x="241.59801"
       y="41.813759"
       id="text3838-7"
       sodipodi:linespacing="125%"><tspan
         sodipodi:role="line"
         id="tspan3840-0"
         x="241.59801"
         y="41.813759"
         style="font-size:13px">[T]</tspan></text>
    <text
       xml:space="preserve"
       style="font-size:40px;font-style:normal;font-weight:normal;line-height:125%;letter-spacing:0px;word-spacing:0px;fill:#000000;fill-opacity:1;stroke:none;font-family:Sans"
       x="189.22995"
       y="112.6577"
       id="text3838-4"
       sodipodi:linespacing="125%"><tspan
         sodipodi:role="line"
         id="tspan3840-9"
         x="189.22995"
         y="112.6577"
         style="font-size:13px">((x<tspan
   style="font-size:65.00091553%;baseline-shift:sub"
   id="tspan3235">2</tspan>=x<tspan
   style="font-size:65.00091553%;baseline-shift:sub"
   id="tspan3239">3</tspan>)∧(x<tspan
   style="font-size:65.00091553%;baseline-shift:sub"
   id="tspan3243">5</tspan>=x<tspan
   style="font-size:65.00091553%;baseline-shift:sub"
   id="tspan3247">6</tspan>))</tspan></text>
    <text
       xml:space="preserve"
       style="font-size:10px;font-style:normal;font-weight:normal;line-height:125%;letter-spacing:0px;word-spacing:0px;fill:#000000;fill-opacity:1;stroke:none;font-family:Sans"
       x="241.32077"
       y="120.22926"
       id="text3178"
       sodipodi:linespacing="125%"><tspan
         sodipodi:role="line"
         id="tspan3180"
         x="241.32077"
         y="120.22926"
         style="font-size:13px">→</tspan></text>
    <text
       xml:space="preserve"
       style="font-size:10px;font-style:normal;font-weight:normal;line-height:125%;letter-spacing:0px;word-spacing:0px;fill:#000000;fill-opacity:1;stroke:none;font-family:Sans"
       x="224.17862"
       y="127.7589"
       id="text3182"
       sodipodi:linespacing="125%"><tspan
         sodipodi:role="line"
         id="tspan3184"
         x="224.17862"
         y="127.7589"
         style="font-size:13px">(x<tspan
   style="font-size:65.00091553%;baseline-shift:sub"
   id="tspan3251">1</tspan>=x<tspan
   style="font-size:65.00091553%;baseline-shift:sub"
   id="tspan3255">7</tspan>)</tspan></text>
    <text
       xml:space="preserve"
       style="font-size:18.16684151px;font-style:normal;font-weight:normal;line-height:125%;letter-spacing:0px;word-spacing:0px;fill:#000000;fill-opacity:1;stroke:none;font-family:Sans"
       x="339.34473"
       y="70.198395"
       id="text3190"
       sodipodi:linespacing="125%"
       transform="scale(0.5504534,1.8166842)"><tspan
         sodipodi:role="line"
         id="tspan3192"
         x="339.34473"
         y="70.198395">[</tspan></text>
    <text
       xml:space="preserve"
       style="font-size:17.79128647px;font-style:normal;font-weight:normal;line-height:125%;letter-spacing:0px;word-spacing:0px;fill:#000000;fill-opacity:1;stroke:none;font-family:Sans"
       x="536.93127"
       y="71.103462"
       id="text3194"
       sodipodi:linespacing="125%"
       transform="scale(0.56207288,1.7791287)"><tspan
         sodipodi:role="line"
         id="tspan3196"
         x="536.93127"
         y="71.103462">]</tspan></text>
    <path
       style="fill:none;stroke:#000000;stroke-width:1px;stroke-linecap:butt;stroke-linejoin:miter;stroke-opacity:1"
       d="m 160.86679,73.776911 0,23.738585"
       id="path3271"
       inkscape:connector-curvature="0" />
    <path
       style="fill:none;stroke:#000000;stroke-width:1px;stroke-linecap:butt;stroke-linejoin:miter;stroke-opacity:1"
       d="M 260.61935,63.675386 171.22086,99.030725"
       id="path3273"
       inkscape:connector-curvature="0" />
  </g>
</svg>
