#FIG 3.2  Produced by xfig version 3.2.5b
Landscape
Center
Inches
Letter  
100.00
Single
-2
1200 2
2 4 0 1 0 7 50 -1 -1 0.000 0 0 7 0 0 5
	 2400 1950 2400 1500 1200 1500 1200 1950 2400 1950
2 1 0 1 0 7 50 -1 -1 0.000 0 0 -1 1 0 2
	2 1 1.00 60.00 120.00
	 1800 1050 1800 1500
2 4 0 1 0 7 50 -1 -1 0.000 0 0 7 0 0 5
	 5025 1050 5025 600 3825 600 3825 1050 5025 1050
2 1 0 1 0 7 50 -1 -1 0.000 0 0 -1 1 0 2
	2 1 1.00 60.00 120.00
	 4500 1050 2025 1500
2 4 0 1 0 7 50 -1 -1 0.000 0 0 7 0 0 5
	 2400 1050 2400 600 1200 600 1200 1050 2400 1050
4 1 0 50 -1 0 14 0.0000 6 240 780 3600 750 $[\\top]$\001
4 1 0 50 -1 0 14 0.0000 6 240 780 2700 750 $[\\top]$\001
4 1 0 50 -1 0 14 0.0000 6 210 1215 4425 900 $x_5 = x_6$\001
4 1 0 50 -1 0 14 0.0000 6 210 1215 1800 1800 $x_1 = x_7$\001
4 0 0 50 -1 0 14 0.0000 6 240 5130 2475 1800 $[x_2 = x_3 \\land x_5 = x_6 \\rightarrow x_1= x_7]$\001
4 1 0 50 -1 0 14 0.0000 6 210 1215 1800 900 $x_2 = x_3$\001
